<?xml version="1.0" encoding="utf-8"?>
<svg xmlns="http://www.w3.org/2000/svg" width="100.58921765943347" height="105.47430419921875" viewBox="-64.0268415963464 -82.41107177734375 100.58921765943347 105.47430419921875" version="1.1">
  <g id="storage">
    <rect x="-64.0268415963464" y="-82.41107177734375" width="100.58921765943347" height="105.47430419921875" style="fill:#303633;fill-opacity:1;stroke:none;" />
    <path style="fill:none;stroke-width:2;stroke-linecap:round;stroke-linejoin:round;stroke:none;stroke-opacity:1;stroke-miterlimit:10;" d="M -39.7677001953125 -62.41107177734375 C -40.102579752604164 -61.40643310546875, -40.45936454449746 -60.40883271225945, -40.7723388671875 -59.39715576171875 C -41.5100498572134 -57.012534562270034, -42.280597838134796 -54.631916982651326, -42.82952880859375 -52.1968994140625 C -43.29886415965818 -50.114962181688476, -43.706105874567264 -48.00838060998825, -43.88214111328125 -45.8814697265625 C -44.02684159634641 -44.133154818044154, -43.99115150392603 -42.36949392835256, -43.88214111328125 -40.61859130859375 C -43.79425357779095 -39.20695967216047, -43.81734766009312 -37.74521371956077, -43.3558349609375 -36.40826416015625 C -43.0220555252584 -35.44134327090247, -42.62609237544093 -34.34724894031117, -41.7769775390625 -33.77685546875 C -39.86160109929255 -32.490200036504156, -37.24129384403191 -32.64504333605646, -34.93524169921875 -32.7242431640625 C -27.74687627747548 -32.9711227961329, -20.753148101076096 -35.32906623880377, -13.88372802734375 -37.46087646484375 C -9.372409734117788 -38.86088903754918, -5.103363509140556 -40.94728148761293, -0.7265625 -42.72369384765625 C 2.2618843501073296 -43.93661486251994, 5.197490207574662 -45.28309990991406, 8.22027587890625 -46.40771484375 C 9.780100577699729 -46.98804118546398, 11.394177337070433 -47.41412057165951, 12.9569091796875 -47.986572265625 C 13.843976520814014 -48.31151809973492, 14.662898818422851 -49.22912624491908, 15.58831787109375 -49.0391845703125 C 15.83135453933801 -48.989301448040614, 16.053970704547798 -48.75345340192703, 16.1146240234375 -48.51287841796875 C 16.56237606308706 -46.736917238468166, 15.101578730047928 -44.99194622057119, 14.5357666015625 -43.25 C 13.387395139939208 -39.71454851941545, 12.250122812230337 -36.168472449845886, 10.85174560546875 -32.7242431640625 C 8.81448502891396 -27.706432156693683, 6.36151362689605 -22.866671562647, 4.010009765625 -17.98822021484375 C 2.8177141026625527 -15.514672763037687, 1.5976383779291146 -13.053881823696624, 0.32598876953125 -10.62017822265625 C -0.6919711323496351 -8.671990087684481, -1.8137661723378649 -6.779242822471769, -2.83172607421875 -4.8310546875 C -3.5583860030321954 -3.4403611554089526, -4.368057746334723 -2.0830863936167345, -4.9368896484375 -0.6207275390625 C -5.399875394830959 0.569520939034541, -5.638590494791667 1.8352457682291665, -5.98944091796875 3.063232421875 " />
  </g>
</svg>
