<?xml version="1.0" encoding="utf-8"?>
<svg xmlns="http://www.w3.org/2000/svg" width="266.21673583984375" height="217.78338623046875" viewBox="-215.33453369140625 -112.1910400390625 266.21673583984375 217.78338623046875" version="1.1">
  <g id="storage">
    <rect x="-215.33453369140625" y="-112.1910400390625" width="266.21673583984375" height="217.78338623046875" style="fill:#303633;fill-opacity:1;stroke:none;" />
    <ellipse cx="-82.22616577148438" cy="-3.299346923828125" rx="113.10836791992188" ry="88.89169311523438" style="fill:none;stroke-width:3;stroke:#FFFFFF;stroke-opacity:1;stroke-miterlimit:10" />
  </g>
</svg>