<?xml version="1.0" encoding="utf-8"?>
<svg xmlns="http://www.w3.org/2000/svg" width="47" height="47" viewBox="-23.5 -23.5 47 47" version="1.1">
  <g id="storage">
    <rect x="-23.5" y="-23.5" width="47" height="47" style="fill:#303633;fill-opacity:1;stroke:none;" />
    <path style="fill:none;stroke-width:3.5;stroke-linecap:round;stroke-linejoin:round;stroke:#FF0000;stroke-opacity:1;stroke-miterlimit:10;" d="M 0 0 " />
  </g>
</svg>
